# This file uses centimeters as units for non-parametric coordinates.

g default
v -0.059267 -0.035618 -0.727743
v -0.788741 -0.035618 0.000000
v -0.029153 -0.035618 0.727743
v 0.699462 -0.035618 0.000000
v -0.626644 1.964382 -0.921402
v -1.556965 1.964382 0.000000
v -0.533610 1.964382 0.921402
v 0.390964 1.964382 0.000000
v -0.051404 -0.035618 0.000000
v -0.665476 2.067679 -0.758294
v -1.361092 2.213737 -0.149748
v -0.713686 2.359796 0.458798
v -0.019705 2.213737 -0.149748
v -0.989836 3.784076 -1.491116
v -2.064647 4.002952 -0.579181
v -1.121412 4.221827 0.332753
v -0.047608 4.002952 -0.579181
v -1.020416 3.934312 -1.357053
v -1.864897 4.167437 -0.665953
v -1.135538 4.400560 0.025146
v -0.291057 4.167437 -0.665953
v -0.949542 6.011284 -2.277679
v -2.073371 6.311043 -1.389043
v -1.135538 6.610802 -0.500406
v -0.011710 6.311043 -1.389043
v -0.983379 6.289310 -2.125967
v -1.856607 6.482947 -1.422782
v -1.129679 6.676585 -0.719598
v -0.256082 6.482948 -1.422782
v -0.458445 8.456917 -2.939101
v -1.512584 8.705903 -2.034924
v -0.593674 8.954888 -1.130746
v 0.462795 8.705903 -2.034924
v -0.325671 9.076900 -2.699585
v -1.189833 9.044614 -1.970942
v -0.562950 9.012327 -1.242296
v 0.315061 9.044614 -1.970942
v 0.468914 14.326884 -1.686754
v -0.307984 14.007759 -1.030917
v 0.421375 13.688634 -0.375080
v 1.198273 14.007758 -1.030917
v 0.468914 16.472694 -0.874471
v -0.545725 16.062349 -0.031173
v 0.392108 15.652007 0.812125
v 1.406747 16.062349 -0.031172
v 0.465823 16.519199 -0.619995
v -0.323779 16.200073 0.035843
v 0.405580 15.880946 0.691682
v 1.195182 16.200073 0.035843
v 0.210586 11.794001 -2.506792
v -0.545499 11.578500 -1.809995
v 0.193496 11.362999 -1.113199
v 0.956285 11.578500 -1.809995
v 0.460344 14.058354 -2.024701
v -0.534504 13.781257 -1.128739
v 0.406100 13.504159 -0.232778
v 1.401935 13.781257 -1.128739
v 0.136935 11.348038 -2.807629
v -0.798912 11.306524 -1.870716
v 0.172504 11.265010 -0.933801
v 1.123096 11.306524 -1.870715
vt 0.545188 0.020923
vt 0.524132 0.020923
vt 0.524132 0.086362
vt 0.550791 0.086362
vt 0.503076 0.020923
vt 0.497473 0.086362
vt 0.524132 0.020923
vt 0.524132 0.086362
vt 0.524132 0.020923
vt 0.528465 0.094521
vt 0.546072 0.089742
vt 0.510857 0.099300
vt 0.528465 0.094521
vt 0.540890 0.153063
vt 0.567275 0.145901
vt 0.514504 0.160225
vt 0.540890 0.153063
vt 0.543400 0.158445
vt 0.563396 0.150817
vt 0.523405 0.166073
vt 0.543400 0.158445
vt 0.564322 0.228583
vt 0.590033 0.218775
vt 0.538611 0.238391
vt 0.564322 0.228583
vt 0.565298 0.234207
vt 0.585644 0.227872
vt 0.544953 0.240543
vt 0.565298 0.234207
vt 0.583009 0.306942
vt 0.609170 0.298795
vt 0.556848 0.315088
vt 0.583009 0.306942
vt 0.581158 0.318024
vt 0.602240 0.319081
vt 0.560076 0.316968
vt 0.581158 0.318024
vt 0.572936 0.490858
vt 0.553960 0.480416
vt 0.525034 0.547641
vt 0.549433 0.561068
vt 0.534984 0.469974
vt 0.500635 0.534215
vt 0.553960 0.480416
vt 0.525034 0.547641
vt 0.523095 0.552148
vt 0.542071 0.562589
vt 0.504119 0.541706
vt 0.523095 0.552148
vt 0.596662 0.407983
vt 0.576501 0.400932
vt 0.556790 0.473005
vt 0.582714 0.482072
vt 0.556341 0.393881
vt 0.530867 0.463939
vt 0.576501 0.400932
vt 0.556790 0.473005
vt 0.578258 0.392033
vt 0.605366 0.393391
vt 0.551150 0.390675
vt 0.578258 0.392033
vn -0.680515 -0.260383 -0.684909
vn -0.680515 -0.260383 -0.684909
vn -0.680515 -0.260384 -0.684909
vn -0.680515 -0.260383 -0.684909
vn -0.658504 -0.243984 0.711930
vn -0.658504 -0.243984 0.711930
vn -0.658504 -0.243984 0.711930
vn -0.658504 -0.243984 0.711930
vn 0.702062 0.108613 0.703784
vn 0.702062 0.108613 0.703784
vn 0.702062 0.108613 0.703784
vn 0.702062 0.108613 0.703784
vn 0.676041 0.112777 -0.728182
vn 0.676041 0.112777 -0.728182
vn 0.676041 0.112777 -0.728182
vn 0.676041 0.112777 -0.728182
vn 0.000000 -1.000000 0.000000
vn 0.000000 -1.000000 0.000000
vn 0.000000 -1.000000 0.000000
vn 0.000000 -1.000000 0.000000
vn 0.000000 -1.000000 0.000000
vn -0.636547 0.310213 -0.706099
vn -0.636547 0.310213 -0.706099
vn -0.636547 0.310213 -0.706099
vn -0.636547 0.310213 -0.706099
vn -0.582648 0.567137 0.582131
vn -0.582648 0.567137 0.582131
vn -0.582648 0.567137 0.582131
vn -0.582648 0.567137 0.582131
vn 0.452045 0.796163 0.402218
vn 0.452045 0.796163 0.402218
vn 0.452045 0.796163 0.402218
vn 0.452045 0.796163 0.402218
vn 0.487022 0.643158 -0.590896
vn 0.487022 0.643158 -0.590896
vn 0.487022 0.643158 -0.590896
vn 0.487022 0.643158 -0.590896
vn -0.642451 -0.404227 -0.651043
vn -0.642452 -0.404227 -0.651043
vn -0.642451 -0.404227 -0.651043
vn -0.642451 -0.404227 -0.651043
vn -0.676430 -0.094759 0.730386
vn -0.676430 -0.094759 0.730386
vn -0.676430 -0.094759 0.730386
vn -0.676430 -0.094759 0.730386
vn 0.662465 0.189302 0.724779
vn 0.662465 0.189302 0.724779
vn 0.662465 0.189302 0.724779
vn 0.662465 0.189302 0.724779
vn 0.701610 -0.159730 -0.694428
vn 0.701610 -0.159730 -0.694428
vn 0.701610 -0.159730 -0.694428
vn 0.701610 -0.159730 -0.694428
vn -0.531104 0.397887 -0.748074
vn -0.531104 0.397887 -0.748074
vn -0.531104 0.397887 -0.748074
vn -0.531104 0.397887 -0.748074
vn -0.560823 0.736933 0.377369
vn -0.560823 0.736933 0.377369
vn -0.560823 0.736933 0.377369
vn -0.560823 0.736933 0.377369
vn 0.492023 0.789880 0.366065
vn 0.492023 0.789880 0.366065
vn 0.492023 0.789880 0.366065
vn 0.492023 0.789880 0.366065
vn 0.502471 0.539074 -0.675960
vn 0.502471 0.539074 -0.675960
vn 0.502471 0.539074 -0.675960
vn 0.502471 0.539074 -0.675960
vn -0.645357 -0.295392 -0.704455
vn -0.645357 -0.295392 -0.704455
vn -0.645357 -0.295392 -0.704455
vn -0.645357 -0.295392 -0.704455
vn -0.705610 0.163921 0.689380
vn -0.705610 0.163921 0.689380
vn -0.705610 0.163921 0.689380
vn -0.705610 0.163921 0.689380
vn 0.644513 0.172286 0.744930
vn 0.644513 0.172286 0.744930
vn 0.644513 0.172286 0.744930
vn 0.644513 0.172286 0.744930
vn 0.704427 -0.307575 -0.639672
vn 0.704427 -0.307575 -0.639672
vn 0.704427 -0.307575 -0.639672
vn 0.704427 -0.307575 -0.639672
vn -0.506427 0.405439 -0.761020
vn -0.506427 0.405439 -0.761020
vn -0.506427 0.405439 -0.761020
vn -0.506427 0.405439 -0.761020
vn -0.520016 0.801438 0.295434
vn -0.520016 0.801438 0.295434
vn -0.520016 0.801438 0.295434
vn -0.520016 0.801438 0.295434
vn 0.466425 0.820289 0.331019
vn 0.466425 0.820289 0.331019
vn 0.466425 0.820289 0.331019
vn 0.466425 0.820289 0.331019
vn 0.515784 0.501126 -0.694866
vn 0.515784 0.501126 -0.694866
vn 0.515784 0.501126 -0.694866
vn 0.515784 0.501126 -0.694866
vn -0.651634 -0.114450 -0.749849
vn -0.651634 -0.114450 -0.749849
vn -0.651634 -0.114450 -0.749849
vn -0.651634 -0.114450 -0.749849
vn -0.707828 0.285291 0.646211
vn -0.707828 0.285291 0.646211
vn -0.707828 0.285291 0.646211
vn -0.707828 0.285291 0.646211
vn 0.639466 -0.003496 0.768812
vn 0.639466 -0.003496 0.768812
vn 0.639466 -0.003496 0.768812
vn 0.639466 -0.003496 0.768812
vn 0.693941 -0.392538 -0.603623
vn 0.693941 -0.392538 -0.603623
vn 0.693941 -0.392538 -0.603623
vn 0.693941 -0.392538 -0.603623
vn -0.538256 0.475941 -0.695529
vn -0.538256 0.475941 -0.695529
vn -0.538256 0.475941 -0.695529
vn -0.538256 0.475941 -0.695529
vn -0.614858 0.608816 0.501291
vn -0.614858 0.608816 0.501291
vn -0.614858 0.608816 0.501291
vn -0.614858 0.608816 0.501291
vn 0.637966 0.274811 0.719360
vn 0.637966 0.274811 0.719360
vn 0.637966 0.274811 0.719360
vn 0.637966 0.274811 0.719360
vn 0.688111 0.228733 -0.688611
vn 0.688111 0.228733 -0.688611
vn 0.688111 0.228733 -0.688611
vn 0.688111 0.228733 -0.688611
vn -0.679637 0.257796 -0.686757
vn -0.679637 0.257796 -0.686757
vn -0.679637 0.257796 -0.686757
vn -0.679637 0.257796 -0.686757
vn -0.705201 -0.374533 0.602011
vn -0.705201 -0.374533 0.602011
vn -0.705201 -0.374533 0.602011
vn -0.705201 -0.374533 0.602011
vn 0.680018 -0.373682 0.630823
vn 0.680018 -0.373682 0.630823
vn 0.680018 -0.373682 0.630823
vn 0.680018 -0.373682 0.630823
vn 0.705640 0.250854 -0.662679
vn 0.705640 0.250854 -0.662679
vn 0.705640 0.250854 -0.662679
vn 0.705640 0.250854 -0.662679
vn -0.483567 0.859889 -0.163566
vn -0.483567 0.859889 -0.163566
vn -0.483567 0.859889 -0.163566
vn -0.483567 0.859889 -0.163566
vn -0.493873 0.427434 0.757225
vn -0.493873 0.427434 0.757225
vn -0.493873 0.427434 0.757225
vn -0.493873 0.427434 0.757225
vn 0.494809 0.381122 0.780967
vn 0.494809 0.381122 0.780967
vn 0.494809 0.381122 0.780967
vn 0.494809 0.381122 0.780967
vn 0.505850 0.849632 -0.149135
vn 0.505850 0.849632 -0.149135
vn 0.505850 0.849632 -0.149135
vn 0.505850 0.849632 -0.149135
vn -0.689563 0.219949 -0.690018
vn -0.689563 0.219949 -0.690018
vn -0.689563 0.219949 -0.690018
vn -0.689563 0.219949 -0.690018
vn -0.704479 -0.207718 0.678648
vn -0.704479 -0.207718 0.678648
vn -0.704479 -0.207718 0.678648
vn -0.704479 -0.207718 0.678648
vn 0.682160 -0.336714 0.649062
vn 0.682160 -0.336714 0.649062
vn 0.682160 -0.336714 0.649062
vn 0.682160 -0.336714 0.649062
vn 0.696245 0.077456 -0.713613
vn 0.696245 0.077456 -0.713613
vn 0.696245 0.077456 -0.713613
vn 0.696245 0.077456 -0.713613
vn -0.604465 0.668486 -0.433299
vn -0.604465 0.668486 -0.433299
vn -0.604465 0.668486 -0.433299
vn -0.604465 0.668486 -0.433299
vn -0.543378 0.399596 0.738285
vn -0.543378 0.399596 0.738285
vn -0.543378 0.399596 0.738285
vn -0.543378 0.399596 0.738284
vn 0.553735 0.336274 0.761772
vn 0.553735 0.336274 0.761772
vn 0.553736 0.336274 0.761772
vn 0.553735 0.336274 0.761772
vn 0.634517 0.636299 -0.438762
vn 0.634517 0.636299 -0.438762
vn 0.634517 0.636299 -0.438762
vn 0.634517 0.636299 -0.438762
vn -0.676519 0.126131 -0.725543
vn -0.676519 0.126131 -0.725543
vn -0.676519 0.126131 -0.725543
vn -0.676519 0.126131 -0.725543
vn -0.714117 0.115665 0.690404
vn -0.714117 0.115665 0.690404
vn -0.714117 0.115665 0.690404
vn -0.714117 0.115665 0.690404
vn 0.651475 -0.286337 0.702561
vn 0.651475 -0.286337 0.702561
vn 0.651475 -0.286337 0.702561
vn 0.651475 -0.286337 0.702561
vn 0.697036 -0.196573 -0.689565
vn 0.697036 -0.196573 -0.689565
vn 0.697036 -0.196573 -0.689565
vn 0.697036 -0.196573 -0.689565
vn -0.618093 0.559611 -0.552083
vn -0.618094 0.559611 -0.552083
vn -0.618094 0.559611 -0.552083
vn -0.618094 0.559611 -0.552083
vn -0.513691 0.582946 0.629520
vn -0.513691 0.582946 0.629520
vn -0.513691 0.582946 0.629520
vn -0.513691 0.582946 0.629520
vn 0.581198 0.447171 0.679888
vn 0.581198 0.447171 0.679888
vn 0.581198 0.447171 0.679888
vn 0.581198 0.447171 0.679888
vn 0.658503 0.404916 -0.634364
vn 0.658503 0.404916 -0.634364
vn 0.658503 0.404916 -0.634364
vn 0.658503 0.404916 -0.634364
s off
g Treetrunk4
f 1/1/1 2/2/2 6/3/3 5/4/4
f 2/2/5 3/5/6 7/6/7 6/3/8
f 3/5/9 4/7/10 8/8/11 7/6/12
f 4/7/13 1/1/14 5/4/15 8/8/16
s 1
f 2/2/17 1/1/18 9/9/19
f 3/5/20 2/2/17 9/9/19
f 4/7/21 3/5/20 9/9/19
f 1/1/18 4/7/21 9/9/19
s off
f 5/4/22 6/3/23 11/10/24 10/11/25
f 6/3/26 7/6/27 12/12/28 11/10/29
f 7/6/30 8/8/31 13/13/32 12/12/33
f 8/8/34 5/4/35 10/11/36 13/13/37
f 10/11/38 11/10/39 15/14/40 14/15/41
f 11/10/42 12/12/43 16/16/44 15/14/45
f 12/12/46 13/13/47 17/17/48 16/16/49
f 13/13/50 10/11/51 14/15/52 17/17/53
f 14/15/54 15/14/55 19/18/56 18/19/57
f 15/14/58 16/16/59 20/20/60 19/18/61
f 16/16/62 17/17/63 21/21/64 20/20/65
f 17/17/66 14/15/67 18/19/68 21/21/69
f 18/19/70 19/18/71 23/22/72 22/23/73
f 19/18/74 20/20/75 24/24/76 23/22/77
f 20/20/78 21/21/79 25/25/80 24/24/81
f 21/21/82 18/19/83 22/23/84 25/25/85
f 22/23/86 23/22/87 27/26/88 26/27/89
f 23/22/90 24/24/91 28/28/92 27/26/93
f 24/24/94 25/25/95 29/29/96 28/28/97
f 25/25/98 22/23/99 26/27/100 29/29/101
f 26/27/102 27/26/103 31/30/104 30/31/105
f 27/26/106 28/28/107 32/32/108 31/30/109
f 28/28/110 29/29/111 33/33/112 32/32/113
f 29/29/114 26/27/115 30/31/116 33/33/117
f 30/31/118 31/30/119 35/34/120 34/35/121
f 31/30/122 32/32/123 36/36/124 35/34/125
f 32/32/126 33/33/127 37/37/128 36/36/129
f 33/33/130 30/31/131 34/35/132 37/37/133
f 38/38/134 39/39/135 43/40/136 42/41/137
f 39/39/138 40/42/139 44/43/140 43/40/141
f 40/42/142 41/44/143 45/45/144 44/43/145
f 41/44/146 38/38/147 42/41/148 45/45/149
f 42/41/150 43/40/151 47/46/152 46/47/153
f 43/40/154 44/43/155 48/48/156 47/46/157
f 44/43/158 45/45/159 49/49/160 48/48/161
f 45/45/162 42/41/163 46/47/164 49/49/165
f 50/50/166 51/51/167 55/52/168 54/53/169
f 51/51/170 52/54/171 56/55/172 55/52/173
f 52/54/174 53/56/175 57/57/176 56/55/177
f 53/56/178 50/50/179 54/53/180 57/57/181
f 54/53/182 55/52/183 39/39/184 38/38/185
f 55/52/186 56/55/187 40/42/188 39/39/189
f 56/55/190 57/57/191 41/44/192 40/42/193
f 57/57/194 54/53/195 38/38/196 41/44/197
f 34/35/198 35/34/199 59/58/200 58/59/201
f 35/34/202 36/36/203 60/60/204 59/58/205
f 36/36/206 37/37/207 61/61/208 60/60/209
f 37/37/210 34/35/211 58/59/212 61/61/213
f 58/59/214 59/58/215 51/51/216 50/50/217
f 59/58/218 60/60/219 52/54/220 51/51/221
f 60/60/222 61/61/223 53/56/224 52/54/225
f 61/61/226 58/59/227 50/50/228 53/56/229
