%YAML 1.1
%TAG !u! tag:unity3d.com,2011:
--- !u!114 &11400000
MonoBehaviour:
  m_ObjectHideFlags: 0
  m_CorrespondingSourceObject: {fileID: 0}
  m_PrefabInstance: {fileID: 0}
  m_PrefabAsset: {fileID: 0}
  m_GameObject: {fileID: 0}
  m_Enabled: 1
  m_EditorHideFlags: 0
  m_Script: {fileID: 11500000, guid: 56fd5efa83419e34cbb936ee8825118c, type: 3}
  m_Name: 01 - Boss
  m_EditorClassIdentifier: 
  durationSeconds: 20
  enemyProgressPairs:
  - enemy: {fileID: 5349731044823021635, guid: bcbffc53d451d1d40a3e1b37345b722f, type: 3}
    progress: 0.1
    count: 2
  - enemy: {fileID: 1401143305970816033, guid: 08153f4ca956b4c4485d6507b170037c, type: 3}
    progress: 0.1
    count: 2
  - enemy: {fileID: 5289167505983908642, guid: b58dfe48e8c26de458a0ecf4259a5ab8, type: 3}
    progress: 0.2
    count: 2
  - enemy: {fileID: 3230143839995070406, guid: f459020ceec4a3247914e2e3f8c909c8, type: 3}
    progress: 0.5
    count: 3
  - enemy: {fileID: 1401143305970816033, guid: 08153f4ca956b4c4485d6507b170037c, type: 3}
    progress: 0.7
    count: 2
  - enemy: {fileID: 970015235502154291, guid: 6214463cf6c928e40b32ad3f70b67088, type: 3}
    progress: 0.9
    count: 1
