# This file uses centimeters as units for non-parametric coordinates.

g default
v 0.328405 0.000000 -0.568813
v -0.328404 0.000000 -0.568813
v -0.656809 0.000000 -0.000000
v -0.328404 0.000000 0.568813
v 0.328404 0.000000 0.568813
v 0.656809 0.000000 0.000000
v 0.000000 0.000000 0.000000
v 0.314263 0.079654 -0.544319
v -0.314263 0.079654 -0.544319
v 0.000000 0.079654 0.000000
v -0.628526 0.079654 -0.000000
v -0.314263 0.079654 0.544320
v 0.314263 0.079654 0.544320
v 0.628526 0.079654 0.000000
vt 0.211540 0.151759
vt 0.247347 0.216643
vt 0.175733 0.216643
vt 0.211540 0.151759
vt 0.139926 0.154623
vt 0.175733 0.092603
vt 0.247347 0.092603
vt 0.283155 0.154623
vt 0.247347 0.216643
vt 0.175733 0.216643
vt 0.139926 0.154623
vt 0.175733 0.092603
vt 0.247347 0.092603
vt 0.283155 0.154623
vt 0.362163 0.488503
vt 0.362163 0.488503
vt 0.362163 0.503935
vt 0.362163 0.503935
vt 0.354447 0.488503
vt 0.354447 0.503935
vt 0.346731 0.488503
vt 0.346731 0.503935
vt 0.346731 0.488503
vt 0.346731 0.503935
vt 0.354447 0.488503
vt 0.354447 0.503935
vn 0.000000 1.000000 0.000000
vn 0.000000 1.000000 -0.000000
vn 0.000000 1.000000 0.000000
vn 0.000000 1.000000 -0.000000
vn 0.000000 1.000000 0.000000
vn 0.000000 1.000000 0.000000
vn 0.000000 1.000000 0.000000
vn 0.000000 -1.000000 0.000000
vn 0.000000 -1.000000 0.000000
vn 0.000000 -1.000000 0.000000
vn 0.000000 -1.000000 0.000000
vn 0.000000 -1.000000 0.000000
vn 0.000000 -1.000000 0.000000
vn 0.000000 -1.000000 0.000000
vn 0.471180 0.334602 -0.816107
vn -0.471179 0.334602 -0.816107
vn -0.471179 0.334602 -0.816107
vn 0.471180 0.334602 -0.816107
vn -0.942360 0.334602 -0.000000
vn -0.942360 0.334602 -0.000000
vn -0.471180 0.334602 0.816107
vn -0.471180 0.334602 0.816107
vn 0.471180 0.334602 0.816107
vn 0.471180 0.334602 0.816107
vn 0.942359 0.334603 0.000000
vn 0.942359 0.334603 0.000000
s 1
g Barrel_Lid
f 8/9/1 9/10/2 10/1/3
f 9/10/2 11/11/4 10/1/3
f 11/11/4 12/12/5 10/1/3
f 12/12/5 13/13/6 10/1/3
f 13/13/6 14/14/7 10/1/3
f 14/14/7 8/9/1 10/1/3
s 2
f 1/2/8 7/4/9 2/3/10
f 2/3/10 7/4/9 3/5/11
f 3/5/11 7/4/9 4/6/12
f 4/6/12 7/4/9 5/7/13
f 5/7/13 7/4/9 6/8/14
f 6/8/14 7/4/9 1/2/8
s 3
f 1/15/15 2/16/16 9/17/17 8/18/18
f 2/16/16 3/19/19 11/20/20 9/17/17
f 3/19/19 4/21/21 12/22/22 11/20/20
f 4/21/21 5/23/23 13/24/24 12/22/22
f 5/23/23 6/25/25 14/26/26 13/24/24
f 6/25/25 1/15/15 8/18/18 14/26/26
