%YAML 1.1
%TAG !u! tag:unity3d.com,2011:
--- !u!1001 &7140727790132815473
PrefabInstance:
  m_ObjectHideFlags: 0
  serializedVersion: 2
  m_Modification:
    m_TransformParent: {fileID: 0}
    m_Modifications:
    - target: {fileID: 4248732776237938416, guid: 959291611a10f2641a447a55daa6b0af, type: 3}
      propertyPath: m_RootOrder
      value: 0
      objectReference: {fileID: 0}
    - target: {fileID: 4248732776237938416, guid: 959291611a10f2641a447a55daa6b0af, type: 3}
      propertyPath: m_LocalPosition.x
      value: 0
      objectReference: {fileID: 0}
    - target: {fileID: 4248732776237938416, guid: 959291611a10f2641a447a55daa6b0af, type: 3}
      propertyPath: m_LocalPosition.y
      value: -0.5
      objectReference: {fileID: 0}
    - target: {fileID: 4248732776237938416, guid: 959291611a10f2641a447a55daa6b0af, type: 3}
      propertyPath: m_LocalPosition.z
      value: 0
      objectReference: {fileID: 0}
    - target: {fileID: 4248732776237938416, guid: 959291611a10f2641a447a55daa6b0af, type: 3}
      propertyPath: m_LocalRotation.w
      value: 1
      objectReference: {fileID: 0}
    - target: {fileID: 4248732776237938416, guid: 959291611a10f2641a447a55daa6b0af, type: 3}
      propertyPath: m_LocalRotation.x
      value: 0
      objectReference: {fileID: 0}
    - target: {fileID: 4248732776237938416, guid: 959291611a10f2641a447a55daa6b0af, type: 3}
      propertyPath: m_LocalRotation.y
      value: 0
      objectReference: {fileID: 0}
    - target: {fileID: 4248732776237938416, guid: 959291611a10f2641a447a55daa6b0af, type: 3}
      propertyPath: m_LocalRotation.z
      value: 0
      objectReference: {fileID: 0}
    - target: {fileID: 4248732776237938416, guid: 959291611a10f2641a447a55daa6b0af, type: 3}
      propertyPath: m_LocalEulerAnglesHint.x
      value: 0
      objectReference: {fileID: 0}
    - target: {fileID: 4248732776237938416, guid: 959291611a10f2641a447a55daa6b0af, type: 3}
      propertyPath: m_LocalEulerAnglesHint.y
      value: 0
      objectReference: {fileID: 0}
    - target: {fileID: 4248732776237938416, guid: 959291611a10f2641a447a55daa6b0af, type: 3}
      propertyPath: m_LocalEulerAnglesHint.z
      value: 0
      objectReference: {fileID: 0}
    - target: {fileID: 4248732776237938421, guid: 959291611a10f2641a447a55daa6b0af, type: 3}
      propertyPath: m_Name
      value: Enemy_Raft Variant 2
      objectReference: {fileID: 0}
    - target: {fileID: 8349548445245985069, guid: 959291611a10f2641a447a55daa6b0af, type: 3}
      propertyPath: maxHealth
      value: 35
      objectReference: {fileID: 0}
    - target: {fileID: 8349548445245985069, guid: 959291611a10f2641a447a55daa6b0af, type: 3}
      propertyPath: moneyReward
      value: 17
      objectReference: {fileID: 0}
    - target: {fileID: 8349548445245985069, guid: 959291611a10f2641a447a55daa6b0af, type: 3}
      propertyPath: attackDamage
      value: 5
      objectReference: {fileID: 0}
    - target: {fileID: 8349548445245985069, guid: 959291611a10f2641a447a55daa6b0af, type: 3}
      propertyPath: movementSpeed
      value: 25
      objectReference: {fileID: 0}
    m_RemovedComponents: []
  m_SourcePrefab: {fileID: 100100000, guid: 959291611a10f2641a447a55daa6b0af, type: 3}
