%YAML 1.1
%TAG !u! tag:unity3d.com,2011:
--- !u!1001 &8118258658287779721
PrefabInstance:
  m_ObjectHideFlags: 0
  serializedVersion: 2
  m_Modification:
    m_TransformParent: {fileID: 0}
    m_Modifications:
    - target: {fileID: 1841997118758705408, guid: 1fc4e25a927cca347afdde9fd0c6c6c6, type: 3}
      propertyPath: m_Name
      value: Enemy_Boss
      objectReference: {fileID: 0}
    - target: {fileID: 1841997118758705409, guid: 1fc4e25a927cca347afdde9fd0c6c6c6, type: 3}
      propertyPath: maxHealth
      value: 599
      objectReference: {fileID: 0}
    - target: {fileID: 1841997118758705409, guid: 1fc4e25a927cca347afdde9fd0c6c6c6, type: 3}
      propertyPath: moneyReward
      value: 75
      objectReference: {fileID: 0}
    - target: {fileID: 1841997118758705409, guid: 1fc4e25a927cca347afdde9fd0c6c6c6, type: 3}
      propertyPath: attackDamage
      value: 20
      objectReference: {fileID: 0}
    - target: {fileID: 1841997118758705409, guid: 1fc4e25a927cca347afdde9fd0c6c6c6, type: 3}
      propertyPath: movementSpeed
      value: 5
      objectReference: {fileID: 0}
    - target: {fileID: 1841997118758705413, guid: 1fc4e25a927cca347afdde9fd0c6c6c6, type: 3}
      propertyPath: m_RootOrder
      value: 0
      objectReference: {fileID: 0}
    - target: {fileID: 1841997118758705413, guid: 1fc4e25a927cca347afdde9fd0c6c6c6, type: 3}
      propertyPath: m_LocalPosition.x
      value: 0
      objectReference: {fileID: 0}
    - target: {fileID: 1841997118758705413, guid: 1fc4e25a927cca347afdde9fd0c6c6c6, type: 3}
      propertyPath: m_LocalPosition.y
      value: -0.5
      objectReference: {fileID: 0}
    - target: {fileID: 1841997118758705413, guid: 1fc4e25a927cca347afdde9fd0c6c6c6, type: 3}
      propertyPath: m_LocalPosition.z
      value: 0
      objectReference: {fileID: 0}
    - target: {fileID: 1841997118758705413, guid: 1fc4e25a927cca347afdde9fd0c6c6c6, type: 3}
      propertyPath: m_LocalRotation.w
      value: 1
      objectReference: {fileID: 0}
    - target: {fileID: 1841997118758705413, guid: 1fc4e25a927cca347afdde9fd0c6c6c6, type: 3}
      propertyPath: m_LocalRotation.x
      value: 0
      objectReference: {fileID: 0}
    - target: {fileID: 1841997118758705413, guid: 1fc4e25a927cca347afdde9fd0c6c6c6, type: 3}
      propertyPath: m_LocalRotation.y
      value: 0
      objectReference: {fileID: 0}
    - target: {fileID: 1841997118758705413, guid: 1fc4e25a927cca347afdde9fd0c6c6c6, type: 3}
      propertyPath: m_LocalRotation.z
      value: 0
      objectReference: {fileID: 0}
    - target: {fileID: 1841997118758705413, guid: 1fc4e25a927cca347afdde9fd0c6c6c6, type: 3}
      propertyPath: m_LocalEulerAnglesHint.x
      value: 0
      objectReference: {fileID: 0}
    - target: {fileID: 1841997118758705413, guid: 1fc4e25a927cca347afdde9fd0c6c6c6, type: 3}
      propertyPath: m_LocalEulerAnglesHint.y
      value: 0
      objectReference: {fileID: 0}
    - target: {fileID: 1841997118758705413, guid: 1fc4e25a927cca347afdde9fd0c6c6c6, type: 3}
      propertyPath: m_LocalEulerAnglesHint.z
      value: 0
      objectReference: {fileID: 0}
    m_RemovedComponents: []
  m_SourcePrefab: {fileID: 100100000, guid: 1fc4e25a927cca347afdde9fd0c6c6c6, type: 3}
